// Jest Snapshot v1, https://goo.gl/fbAQLP

exports[`Snapshots No pool tokens 1`] = `
<div>
  <div
    class="css-c739ra"
  >
    <div
      class="css-ks930z"
    >
      <div
        class="css-1hrmuk2"
      >
        <span
          class="text css-16p1gat"
        >
          You do not have any Dexter pool tokens
        </span>
      </div>
    </div>
  </div>
</div>
`;

exports[`Snapshots With pool token 1`] = `
<div>
  <div
    class="css-c739ra"
  >
    <div
      class="css-u69oxh"
    >
      <div
        class="css-m7sp2u"
      >
        <span
          class="text css-1n2q5h8"
        >
          Pool tokens
        </span>
      </div>
      <div
        class="css-m7sp2u"
      >
        <span
          class="text css-1n2q5h8"
        >
          Redeemable for:
        </span>
      </div>
    </div>
    <div
      class="css-115bmz6"
    >
      <div
        class="css-nt65u9"
      >
        <div
          class="css-zbe2xp"
        >
          <div
            class="css-1qyp71p"
          >
            <div
              class="css-7z4ufc"
            >
              <div
                class="css-1jcwds3"
              >
                <img
                  class="css-8atqhb"
                  src="/img/tezos.png"
                />
              </div>
            </div>
            <div
              class="css-3vwf31"
            >
              <div
                class="css-1jcwds3"
              >
                <img
                  class="css-8atqhb"
                  src="/img/"
                />
              </div>
            </div>
          </div>
          <div
            class="css-1ipn27h"
          >
            <span
              class="text css-a1sm0x"
            >
              232.233 
              XTZ/MTZ
            </span>
            <div
              class="css-1qyp71p"
            >
              <span
                class="text css-15ba6i5"
              >
                0.00% of liquidity pool
              </span>
            </div>
          </div>
        </div>
        <div
          class="css-ois6p4"
        >
          <div
            class="css-1qyp71p"
          >
            <span
              class="text css-1n2q5h8"
            >
              0.000939 XTZ
            </span>
            <span
              class="text css-11hapxs"
            >
              <span
                class="css-rkd6ay"
              >
                (
                $0.00
                )
              </span>
            </span>
          </div>
          <div
            class="css-1qyp71p"
          >
            <span
              class="text css-1n2q5h8"
            >
              0 MTZ
            </span>
            <span
              class="text css-11hapxs"
            >
              <span
                class="css-rkd6ay"
              >
                (
                $0.00
                )
              </span>
            </span>
          </div>
        </div>
      </div>
    </div>
  </div>
</div>
`;

exports[`Snapshots With pool token, but no lqtBalance 1`] = `
<div>
  <div
    class="css-c739ra"
  >
    <div
      class="css-ks930z"
    >
      <div
        class="css-1hrmuk2"
      >
        <span
          class="text css-16p1gat"
        >
          You do not have any Dexter pool tokens
        </span>
      </div>
    </div>
  </div>
</div>
`;
