// Jest Snapshot v1, https://goo.gl/fbAQLP

exports[`Snapshots Exchange 1`] = `
<div>
  <div
    class="css-1639wuw"
  >
    <div
      class="css-1m6mh4z"
    >
      <div
        class="css-4ezqf"
      >
        <div
          class="css-1qyp71p"
        >
          <button
            class="css-1u502lw"
            type="button"
          >
            <div
              class="css-19swwyc"
            >
              <img
                src="/icons/exchange-tab.svg"
              />
            </div>
            <div
              class="css-1i3s7z6"
            />
            <span
              class="text css-1tdecg0"
            >
              Exchange
            </span>
          </button>
          <button
            class="css-5iq42e"
            type="button"
          >
            <div
              class="css-19swwyc"
            >
              <img
                src="/icons/pool-tab.svg"
              />
            </div>
            <div
              class="css-1i3s7z6"
            />
            <span
              class="text css-8setck"
            >
              Liquidity Pool
            </span>
          </button>
        </div>
      </div>
      <div
        class="css-t4bthe"
      >
        <div
          class="css-1tl0oc3"
        >
          <div
            class="css-1qyp71p"
          >
            <div
              class="css-1vynv6y"
            >
              <div
                class="css-5uuh"
              >
                <span
                  class="text css-18c9xzb"
                >
                  Exchange:
                </span>
              </div>
              <div
                class="css-yinbhx"
              >
                <button
                  class="css-td2y5j"
                  type="button"
                >
                  <div
                    class="css-1qyp71p"
                  >
                    <div
                      class="css-7fpm62"
                    >
                      <img
                        class="css-8atqhb"
                        src="/img/tezos.png"
                      />
                    </div>
                  </div>
                  <div
                    class="css-rirqje"
                  >
                    <div
                      class="css-z08yav"
                    >
                      <span
                        class="text css-1k38i2u"
                      >
                        XTZ
                      </span>
                      <div
                        class="css-1ojr4kv"
                      >
                        <span
                          class="text icon css-7plwej"
                        >
                          <i
                            class="icon-down-open"
                          />
                        </span>
                      </div>
                    </div>
                    <div
                      class="css-19os2fz"
                    >
                      <span
                        class="text css-1sah9rs"
                      >
                        My balance: 10
                      </span>
                    </div>
                  </div>
                </button>
                <div
                  class="css-yinbhx"
                >
                  <div
                    class="css-17b68m6"
                  >
                    <span
                      class="text css-11hapxs"
                    >
                      Amount:
                    </span>
                  </div>
                  <button
                    class="css-5l49yg"
                    disabled=""
                    type="button"
                  >
                    <div
                      class="css-z08yav"
                    >
                      <div
                        class="css-saj16u"
                      >
                        <input
                          class="css-is2n50"
                          disabled=""
                          type="text"
                          value="0"
                        />
                      </div>
                      <div
                        class="css-1qyp71p"
                      >
                        <span
                          class="text css-hz81z1"
                        >
                          MAX
                        </span>
                      </div>
                    </div>
                    <span
                      class="text css-tt7h7z"
                    >
                      <span
                        class=""
                      >
                        $0.00
                      </span>
                    </span>
                  </button>
                </div>
              </div>
            </div>
            <div
              class="css-1j1k0xa"
            >
              <div
                class="css-106wamf"
              />
              <div
                class="css-gqpdvn"
              >
                <button
                  class="css-dfjru2"
                  type="button"
                >
                  <div
                    class="css-7zsada"
                  >
                    <img
                      src="/icons/exchange-middle.svg"
                    />
                  </div>
                </button>
              </div>
            </div>
            <div
              class="css-myksnc"
            >
              <div
                class="css-5uuh"
              >
                <span
                  class="text css-18c9xzb"
                >
                  To receive (estimate):
                </span>
              </div>
              <div
                class="css-yinbhx"
              >
                <button
                  class="css-td2y5j"
                  type="button"
                >
                  <div
                    class="css-1qyp71p"
                  >
                    <div
                      class="css-7fpm62"
                    >
                      <img
                        class="css-8atqhb"
                        src="/img/"
                      />
                    </div>
                  </div>
                  <div
                    class="css-rirqje"
                  >
                    <div
                      class="css-z08yav"
                    >
                      <span
                        class="text css-1k38i2u"
                      >
                        MTZ
                      </span>
                      <div
                        class="css-1ojr4kv"
                      >
                        <span
                          class="text icon css-7plwej"
                        >
                          <i
                            class="icon-down-open"
                          />
                        </span>
                      </div>
                    </div>
                    <div
                      class="css-19os2fz"
                    >
                      <span
                        class="text css-1sah9rs"
                      >
                        My balance: 0.1
                      </span>
                      <span
                        class="text css-1sah9rs"
                      >
                        Dexter balance: 61.626
                      </span>
                    </div>
                  </div>
                </button>
                <div
                  class="css-yinbhx"
                >
                  <div
                    class="css-17b68m6"
                  >
                    <span
                      class="text css-11hapxs"
                    >
                      Amount:
                    </span>
                  </div>
                  <button
                    class="css-5l49yg"
                    disabled=""
                    type="button"
                  >
                    <div
                      class="css-z08yav"
                    >
                      <div
                        class="css-1oe6q19"
                      >
                        <input
                          class="css-is2n50"
                          disabled=""
                          type="text"
                          value="0"
                        />
                      </div>
                    </div>
                    <span
                      class="text css-tt7h7z"
                    >
                      <span
                        class=""
                      >
                        $0.00
                      </span>
                    </span>
                  </button>
                </div>
              </div>
            </div>
          </div>
          <div
            class="css-1evjdmk"
          >
            <div
              class="css-poc3le"
            >
              <div
                class="css-153w1v6"
              >
                <span
                  class="text css-a1sm0x"
                >
                  1 XTZ = 0.01523806 MTZ
                </span>
              </div>
            </div>
            <div
              class="css-2cpqmg"
            >
              <button
                class="css-dfjru2"
                type="button"
              >
                <span
                  class="text css-19frzn5"
                >
                  Advanced options
                </span>
              </button>
            </div>
            <div
              class="css-jvlwtn"
            >
              <div
                class="css-yinbhx"
              >
                <button
                  class="css-1ftidtl"
                  disabled=""
                  type="button"
                >
                  <div
                    class="css-z08yav"
                  >
                    <span
                      class="text css-1vsxajc"
                    >
                      <i
                        class="icon-unchecked"
                      />
                    </span>
                    <div
                      class="css-1uidc0r"
                    >
                      <span
                        class="text css-11hapxs"
                      >
                        Send MTZ to another address
                      </span>
                    </div>
                  </div>
                </button>
                <div
                  class="css-7au37g"
                >
                  <input
                    class="css-1q92pam"
                    disabled=""
                    placeholder="Paste address here"
                    value=""
                  />
                </div>
              </div>
            </div>
            <div
              class="css-1gql53m"
            >
              <div
                class="css-1p9piwg"
              >
                <span
                  class="text css-1xc8t4j"
                >
                  ⓘ
                   
                  <span
                    class="css-1vg6q84"
                  >
                     Estimated slippage: 0.00% 
                  </span>
                </span>
              </div>
            </div>
            <div
              class="css-9unzuk"
            >
              <span
                class="text css-dm25gx"
              >
                Please connect a wallet to use the Dexter Exchange.
              </span>
            </div>
            <button
              class="css-8557j"
              disabled=""
              type="button"
            >
              Exchange XTZ for MTZ
            </button>
          </div>
        </div>
      </div>
    </div>
    <div
      class="css-dbg5sg"
    >
      <span
        class="text css-1gb8g2f"
      >
        Interested in using Dexter on mobile?
      </span>
      <span
        class="text css-1ayi1be"
      >
        Try
      </span>
      <span
        class="text css-13tqr37"
      >
        <a
          href="https://magmawallet.io/"
          target="_blank"
        >
          Magma
        </a>
      </span>
      <span
        class="text css-11hapxs"
      >
        , the Tezos wallet app from camlCase, the same team behind Dexter.
      </span>
    </div>
  </div>
</div>
`;

exports[`Snapshots Liquidity Pool 1`] = `
<div>
  <div
    class="css-1639wuw"
  >
    <div
      class="css-1m6mh4z"
    >
      <div
        class="css-4ezqf"
      >
        <div
          class="css-1qyp71p"
        >
          <button
            class="css-5iq42e"
            type="button"
          >
            <div
              class="css-19swwyc"
            >
              <img
                src="/icons/exchange-tab.svg"
              />
            </div>
            <div
              class="css-1i3s7z6"
            />
            <span
              class="text css-140nb26"
            >
              Exchange
            </span>
          </button>
          <button
            class="css-1u502lw"
            type="button"
          >
            <div
              class="css-19swwyc"
            >
              <img
                src="/icons/pool-tab.svg"
              />
            </div>
            <div
              class="css-1i3s7z6"
            />
            <span
              class="text css-764y3v"
            >
              Liquidity Pool
            </span>
          </button>
        </div>
      </div>
      <div
        class="css-t4bthe"
      >
        <div
          class="css-1bzpr79"
        >
          <button
            class="css-yeq2h2"
            type="button"
          >
            <span
              class="text css-1r2yzmb"
            >
              <i
                class="icon-info"
              />
            </span>
          </button>
          <div
            class="css-rpbbtx"
          >
            <button
              class="css-1u502lw"
              type="button"
            >
              <span
                class="text css-15bercg"
              >
                Add Liquidity
              </span>
            </button>
            <button
              class="css-utqs49"
              type="button"
            >
              <span
                class="text css-yshc1k"
              >
                Remove Liquidity
              </span>
            </button>
            <button
              class="css-5iq42e"
              type="button"
            >
              <span
                class="text css-axwf5n"
              >
                Pool Data
              </span>
            </button>
          </div>
          <div
            class="css-1rmwsde"
          >
            <div
              class="css-8gh49d"
            >
              <div
                class="css-6e3beh"
              >
                <div
                  class="css-1qyp71p"
                >
                  <div
                    class="css-myksnc"
                  >
                    <div
                      class="css-5uuh"
                    >
                      <span
                        class="text css-18c9xzb"
                      >
                        Add liquidity:
                      </span>
                    </div>
                    <div
                      class="css-yinbhx"
                    >
                      <button
                        class="css-td2y5j"
                        type="button"
                      >
                        <div
                          class="css-1qyp71p"
                        >
                          <div
                            class="css-7fpm62"
                          >
                            <img
                              class="css-8atqhb"
                              src="/img/"
                            />
                          </div>
                        </div>
                        <div
                          class="css-rirqje"
                        >
                          <div
                            class="css-z08yav"
                          >
                            <span
                              class="text css-1k38i2u"
                            >
                              MTZ
                            </span>
                            <div
                              class="css-1ojr4kv"
                            >
                              <span
                                class="text icon css-7plwej"
                              >
                                <i
                                  class="icon-down-open"
                                />
                              </span>
                            </div>
                          </div>
                          <div
                            class="css-19os2fz"
                          >
                            <span
                              class="text css-1sah9rs"
                            >
                              My balance: 0.1
                            </span>
                            <span
                              class="text css-1sah9rs"
                            >
                              Pool balance: 61.626
                            </span>
                          </div>
                        </div>
                      </button>
                      <div
                        class="css-yinbhx"
                      >
                        <div
                          class="css-17b68m6"
                        >
                          <span
                            class="text css-11hapxs"
                          >
                            Amount:
                          </span>
                        </div>
                        <button
                          class="css-5l49yg"
                          disabled=""
                          type="button"
                        >
                          <div
                            class="css-z08yav"
                          >
                            <div
                              class="css-saj16u"
                            >
                              <input
                                class="css-is2n50"
                                disabled=""
                                type="text"
                                value="0"
                              />
                            </div>
                            <div
                              class="css-1qyp71p"
                            >
                              <span
                                class="text css-hz81z1"
                              >
                                MAX
                              </span>
                            </div>
                          </div>
                          <span
                            class="text css-tt7h7z"
                          >
                            <span
                              class=""
                            >
                              $0.00
                            </span>
                          </span>
                        </button>
                      </div>
                    </div>
                  </div>
                  <div
                    class="css-1a02ggt"
                  >
                    <div
                      class="css-fti7zr"
                    >
                      <div
                        class="css-r2nm85"
                      >
                        <img
                          src="/icons/and.svg"
                        />
                      </div>
                    </div>
                  </div>
                  <div
                    class="css-myksnc"
                  >
                    <div
                      class="css-5uuh"
                    >
                      <span
                        class="text css-18c9xzb"
                      >
                         
                      </span>
                    </div>
                    <div
                      class="css-yinbhx"
                    >
                      <div
                        class="css-xedpso"
                      >
                        <div
                          class="css-1qyp71p"
                        >
                          <div
                            class="css-7fpm62"
                          >
                            <img
                              class="css-8atqhb"
                              src="/img/tezos.png"
                            />
                          </div>
                        </div>
                        <div
                          class="css-rirqje"
                        >
                          <div
                            class="css-z08yav"
                          >
                            <span
                              class="text css-1k38i2u"
                            >
                              XTZ
                            </span>
                          </div>
                          <div
                            class="css-19os2fz"
                          >
                            <span
                              class="text css-1sah9rs"
                            >
                              My balance: 10
                            </span>
                            <span
                              class="text css-1sah9rs"
                            >
                              Pool balance: 4,044.215554
                            </span>
                          </div>
                        </div>
                      </div>
                      <div
                        class="css-yinbhx"
                      >
                        <div
                          class="css-17b68m6"
                        >
                          <span
                            class="text css-11hapxs"
                          >
                            Amount:
                          </span>
                        </div>
                        <button
                          class="css-5l49yg"
                          disabled=""
                          type="button"
                        >
                          <div
                            class="css-z08yav"
                          >
                            <div
                              class="css-1oe6q19"
                            >
                              <input
                                class="css-is2n50"
                                disabled=""
                                type="text"
                                value="0"
                              />
                            </div>
                          </div>
                          <span
                            class="text css-tt7h7z"
                          >
                            <span
                              class=""
                            >
                              $0.00
                            </span>
                          </span>
                        </button>
                      </div>
                    </div>
                  </div>
                </div>
                <div
                  class="css-poc3le"
                >
                  <div
                    class="css-153w1v6"
                  >
                    <span
                      class="text css-a1sm0x"
                    >
                      0.01523806 MTZ = 1 XTZ
                    </span>
                  </div>
                </div>
              </div>
              <div
                class="css-3qohtv"
              >
                <div
                  class="css-106wamf"
                />
                <div
                  class="css-dojxaf"
                >
                  <div
                    class="css-1qyp71p"
                  >
                    <div
                      class="css-r2nm85"
                    >
                      <img
                        src="/icons/receive.svg"
                      />
                    </div>
                  </div>
                </div>
              </div>
              <div
                class="css-myksnc"
              >
                <div
                  class="css-5uuh"
                >
                  <span
                    class="text css-18c9xzb"
                  >
                    Receive pool tokens:
                  </span>
                </div>
                <div
                  class="css-yinbhx"
                >
                  <div
                    class="css-xedpso"
                  >
                    <div
                      class="css-1qyp71p"
                    >
                      <div
                        class="css-1qyp71p"
                      >
                        <div
                          class="css-7z4ufc"
                        >
                          <div
                            class="css-7fpm62"
                          >
                            <img
                              class="css-8atqhb"
                              src="/img/tezos.png"
                            />
                          </div>
                        </div>
                        <div
                          class="css-1oro77w"
                        >
                          <div
                            class="css-7fpm62"
                          >
                            <img
                              class="css-8atqhb"
                              src="/img/"
                            />
                          </div>
                        </div>
                      </div>
                    </div>
                    <div
                      class="css-rirqje"
                    >
                      <div
                        class="css-z08yav"
                      >
                        <span
                          class="text css-wh998m"
                        >
                          XTZ/MTZ
                        </span>
                      </div>
                      <div
                        class="css-19os2fz"
                      />
                    </div>
                  </div>
                  <div
                    class="css-yinbhx"
                  >
                    <div
                      class="css-17b68m6"
                    >
                      <span
                        class="text css-11hapxs"
                      >
                        Amount:
                      </span>
                    </div>
                    <div
                      class="css-1negojm"
                    >
                      <div
                        class="css-z08yav"
                      >
                        <div
                          class="css-1oe6q19"
                        >
                          <div
                            class="css-1qyp71p"
                          >
                            <span
                              class="text css-f5kaye"
                            >
                              0
                            </span>
                          </div>
                        </div>
                      </div>
                      <span
                        class="text css-tt7h7z"
                      >
                        0% of liquidity pool
                      </span>
                    </div>
                  </div>
                </div>
              </div>
            </div>
            <div
              class="css-j8mk92"
            >
              <span
                class="text css-dm25gx"
              >
                Please connect a wallet to use the Dexter Liquidity Pool.
              </span>
            </div>
            <div
              class="css-18rxnl1"
            >
              <button
                class="css-vx2241"
                disabled=""
                type="button"
              >
                Add liquidity
              </button>
            </div>
          </div>
        </div>
      </div>
    </div>
    <div
      class="css-dbg5sg"
    >
      <span
        class="text css-1gb8g2f"
      >
        Interested in using Dexter on mobile?
      </span>
      <span
        class="text css-1ayi1be"
      >
        Try
      </span>
      <span
        class="text css-13tqr37"
      >
        <a
          href="https://magmawallet.io/"
          target="_blank"
        >
          Magma
        </a>
      </span>
      <span
        class="text css-11hapxs"
      >
        , the Tezos wallet app from camlCase, the same team behind Dexter.
      </span>
    </div>
  </div>
</div>
`;

exports[`Snapshots Loading 1`] = `
<div>
  <div
    class="css-1639wuw"
  >
    <div
      class="css-1m6mh4z"
    >
      <div
        class="css-4ezqf"
      >
        <div
          class="css-1qyp71p"
        >
          <button
            class="css-1u502lw"
            type="button"
          >
            <div
              class="css-19swwyc"
            >
              <img
                src="/icons/exchange-tab.svg"
              />
            </div>
            <div
              class="css-1i3s7z6"
            />
            <span
              class="text css-1tdecg0"
            >
              Exchange
            </span>
          </button>
          <button
            class="css-5iq42e"
            type="button"
          >
            <div
              class="css-19swwyc"
            >
              <img
                src="/icons/pool-tab.svg"
              />
            </div>
            <div
              class="css-1i3s7z6"
            />
            <span
              class="text css-8setck"
            >
              Liquidity Pool
            </span>
          </button>
        </div>
      </div>
      <div
        class="css-t4bthe"
      >
        <div
          class="css-dcrhto"
        >
          <div
            class="css-icbgtp"
          >
            <div />
            <div />
            <div />
            <div />
          </div>
        </div>
      </div>
    </div>
    <div
      class="css-dbg5sg"
    >
      <span
        class="text css-1gb8g2f"
      >
        Interested in using Dexter on mobile?
      </span>
      <span
        class="text css-1ayi1be"
      >
        Try
      </span>
      <span
        class="text css-13tqr37"
      >
        <a
          href="https://magmawallet.io/"
          target="_blank"
        >
          Magma
        </a>
      </span>
      <span
        class="text css-11hapxs"
      >
        , the Tezos wallet app from camlCase, the same team behind Dexter.
      </span>
    </div>
  </div>
</div>
`;
