// Jest Snapshot v1, https://goo.gl/fbAQLP

exports[`Snapshots Renders 1`] = `
<div>
  <div
    class="css-brskpz"
  >
    <div
      class="css-l6tg9s"
    >
      <div
        class="css-z08yav"
      >
        <div
          class="css-my0rpw"
        >
          <div
            class="css-1gfaul9"
          >
            <img
              src="/img/logo.svg"
            />
          </div>
          <div
            class="css-1bhk1km"
          >
            <span
              class="text css-j3gc6"
            >
              V1.0
            </span>
          </div>
        </div>
        <a
          class="css-ytumd6"
          href="https://dexter.exchange"
          target="_blank"
        >
          <div
            class="css-2qm2zz"
          >
            About Dexter
          </div>
        </a>
      </div>
      <div
        class="css-1qyp71p"
      >
        <div
          class="css-8sq40q"
        >
          <div
            class="css-8qb1gu"
          >
            <a
              href="https://stats.dexter.exchange"
              target="_blank"
            >
              <span
                class="text css-1q59rde"
              >
                Dexter Stats
              </span>
            </a>
          </div>
          <div
            class="css-8qb1gu"
          >
            <a
              href="https://dexter.exchange/docs/dexter-tutorials/"
              target="_blank"
            >
              <span
                class="text css-1q59rde"
              >
                Tutorials
              </span>
            </a>
          </div>
          <div
            class="css-8qb1gu"
          >
            <a
              href="https://docs.google.com/forms/d/e/1FAIpQLSeM5hB6A4swBrpwMceGQZ3ioS_k3_SbqLESaea5svGwobUmeQ/viewform?usp=sf_link"
              target="_blank"
            >
              <span
                class="text css-1q59rde"
              >
                Share Feedback
              </span>
            </a>
          </div>
        </div>
        <button
          class="css-1892t0v"
          type="button"
        >
          <div
            class="css-wrb823"
          />
          <div
            class="css-7z4ufc"
          >
            <div
              class="css-61cgac"
            >
              <img
                src="/icons/light.svg"
              />
            </div>
          </div>
          <div
            class="css-yq3geq"
          >
            <div
              class="css-61cgac"
            >
              <img
                src="/icons/dark.svg"
              />
            </div>
          </div>
        </button>
        <div
          class="css-ey90wf"
        />
        <div
          class="css-1boruc7"
        >
          <div
            class="css-1c446fi"
          >
            <span
              class="text css-1966nvm"
            >
              USD
            </span>
          </div>
        </div>
      </div>
    </div>
  </div>
</div>
`;
