// Jest Snapshot v1, https://goo.gl/fbAQLP

exports[`Snapshots Dark mode 1`] = `
<div>
  <div
    class="css-5c6w3r"
  >
    <button
      class="css-1p0mwil"
      type="button"
    >
      <span
        class="text css-rg92np"
      >
        Development
      </span>
    </button>
    <div
      class="css-4ihban"
    >
      <div
        class="css-ot4hpl"
      >
        <span
          class="text css-e0aado"
        >
          camlCase XTZ Faucet: 
        </span>
        <div
          class="css-m6g7z2"
        >
          <div
            class="css-1wi09sn"
          >
            <input
              class="css-eyx8vg"
              placeholder="Paste address here"
              value=""
            />
            <div
              class="css-1x3djp8"
            >
              <span
                class="text css-ffu0wk"
              >
                <button
                  class="css-dfjru2"
                  type="button"
                >
                  <i
                    class="icon-paste"
                  />
                </button>
              </span>
            </div>
          </div>
        </div>
        <button
          class="css-1y17ici"
          disabled=""
          type="button"
        >
          Get 500 XTZ (once per address)
        </button>
      </div>
    </div>
  </div>
</div>
`;

exports[`Snapshots Light mode 1`] = `
<div>
  <div
    class="css-5c6w3r"
  >
    <button
      class="css-1p0mwil"
      type="button"
    >
      <span
        class="text css-g161fd"
      >
        Development
      </span>
    </button>
    <div
      class="css-1u4iift"
    >
      <div
        class="css-ot4hpl"
      >
        <span
          class="text css-1fbkhoo"
        >
          camlCase XTZ Faucet: 
        </span>
        <div
          class="css-m6g7z2"
        >
          <div
            class="css-r0j90z"
          >
            <input
              class="css-1q92pam"
              placeholder="Paste address here"
              value=""
            />
            <div
              class="css-1x3djp8"
            >
              <span
                class="text css-1ihvc0p"
              >
                <button
                  class="css-dfjru2"
                  type="button"
                >
                  <i
                    class="icon-paste"
                  />
                </button>
              </span>
            </div>
          </div>
        </div>
        <button
          class="css-1gznyt6"
          disabled=""
          type="button"
        >
          Get 500 XTZ (once per address)
        </button>
      </div>
    </div>
  </div>
</div>
`;
