[
  {
    "prim": "parameter",
    "args": [
      { "prim": "contract", "args": [{ "prim": "unit" }], "annots": [":X"] }
    ]
  },
  { "prim": "storage", "args": [{ "prim": "unit" }] },
  {
    "prim": "code",
    "args": [
      [
        { "prim": "CDR", "annots": ["@storage_slash_1"] },
        { "prim": "NIL", "args": [{ "prim": "operation" }] },
        { "prim": "PAIR" }
      ]
    ]
  }
]
