[
    {
        "prim": "IF_NONE",
        "args": [
            [
                {
                    "prim": "PUSH",
                    "args": [
                        {
                            "prim": "string"
                        },
                        {
                            "string": "a"
                        }
                    ]
                },
                {
                    "prim": "FAILWITH"
                }
            ],
            []
        ]
    }
]
