{
    "kind": "transaction",
    "source": "tz1R3vJ5TV8Y5pVj8dicBR23Zv8JArusDkYr",
    "fee": "2501",
    "counter": "894910",
    "gas_limit": "21987",
    "storage_limit": "0",
    "amount": "0",
    "destination": "KT1CUTjTqf4UMf6c9A8ZA4e1ntWbLVTnvrKG",
    "parameters": {
        "entrypoint": "updateValue",
        "value": {
            "prim": "Pair",
            "args": [
                {
                    "string": "2020-08-06T08:10:33Z"
                },
                {
                    "int": "44025"
                }
            ]
        }
    },
    "metadata": {
        "balance_updates": [
            {
                "kind": "contract",
                "contract": "tz1R3vJ5TV8Y5pVj8dicBR23Zv8JArusDkYr",
                "change": "-2501"
            },
            {
                "kind": "freezer",
                "category": "fees",
                "delegate": "tz1VxS7ff4YnZRs8b4mMP4WaMVpoQjuo1rjf",
                "cycle": 305,
                "change": "2501"
            }
        ],
        "operation_result": {
            "status": "applied",
            "storage": {
                "prim": "Pair",
                "args": [
                    {
                        "prim": "Pair",
                        "args": [
                            {
                                "int": "1596701433"
                            },
                            {
                                "int": "44025"
                            }
                        ]
                    },
                    {
                        "bytes": "00003b5d4596c032347b72fb51f688c45200d0cb50db"
                    }
                ]
            },
            "consumed_gas": "21787",
            "storage_size": "527"
        }
    }
}
