{
    "operation": {
        "branch": "BM5qVBbTfXjRDo9DDmvmUnKc4hMM3i6BpwNb8AwmwowE5a8V7Yb",
        "contents": [
            {
                "kind": "transaction",
                "source": "tz1S82rGFZK8cVbNDpP1Hf9VhTUa4W8oc2WV",
                "fee": "0",
                "counter": "552906",
                "gas_limit": "1040000",
                "storage_limit": "60000",
                "amount": "0",
                "destination": "KT1Njyz94x2pNJGh5uMhKj24VB9JsGCdkySN",
                "parameters": {
                    "entrypoint": "default",
                    "value": [
                        {
                            "prim": "PUSH",
                            "args": [
                                {
                                    "prim": "mutez"
                                },
                                {
                                    "int": "0"
                                }
                            ]
                        },
                        {
                            "prim": "NONE",
                            "args": [
                                {
                                    "prim": "key_hash"
                                }
                            ]
                        },
                        {
                            "prim": "CREATE_CONTRACT",
                            "args": [
                                [
                                    {
                                        "prim": "parameter",
                                        "args": [
                                            {
                                                "prim": "nat"
                                            }
                                        ]
                                    },
                                    {
                                        "prim": "storage",
                                        "args": [
                                            {
                                                "prim": "unit"
                                            }
                                        ]
                                    },
                                    {
                                        "prim": "code",
                                        "args": [
                                            [
                                                {
                                                    "prim": "FAILWITH"
                                                }
                                            ]
                                        ]
                                    }
                                ]
                            ]
                        },
                        {
                            "prim": "DIP",
                            "args": [
                                [
                                    {
                                        "prim": "DIP",
                                        "args": [
                                            [
                                                {
                                                    "prim": "LAMBDA",
                                                    "args": [
                                                        {
                                                            "prim": "pair",
                                                            "args": [
                                                                {
                                                                    "prim": "address"
                                                                },
                                                                {
                                                                    "prim": "unit"
                                                                }
                                                            ]
                                                        },
                                                        {
                                                            "prim": "pair",
                                                            "args": [
                                                                {
                                                                    "prim": "list",
                                                                    "args": [
                                                                        {
                                                                            "prim": "operation"
                                                                        }
                                                                    ]
                                                                },
                                                                {
                                                                    "prim": "unit"
                                                                }
                                                            ]
                                                        },
                                                        [
                                                            {
                                                                "prim": "CAR"
                                                            },
                                                            {
                                                                "prim": "CONTRACT",
                                                                "args": [
                                                                    {
                                                                        "prim": "nat"
                                                                    }
                                                                ]
                                                            },
                                                            {
                                                                "prim": "IF_NONE",
                                                                "args": [
                                                                    [
                                                                        {
                                                                            "prim": "PUSH",
                                                                            "args": [
                                                                                {
                                                                                    "prim": "string"
                                                                                },
                                                                                {
                                                                                    "string": "a"
                                                                                }
                                                                            ]
                                                                        },
                                                                        {
                                                                            "prim": "FAILWITH"
                                                                        }
                                                                    ],
                                                                    []
                                                                ]
                                                            },
                                                            {
                                                                "prim": "PUSH",
                                                                "args": [
                                                                    {
                                                                        "prim": "address"
                                                                    },
                                                                    {
                                                                        "string": "tz1MQehPikysuVYN5hTiKTnrsFidAww7rv3z"
                                                                    }
                                                                ]
                                                            },
                                                            {
                                                                "prim": "PUSH",
                                                                "args": [
                                                                    {
                                                                        "prim": "address"
                                                                    },
                                                                    {
                                                                        "string": "tz1MQehPikysuVYN5hTiKTnrsFidAww7rv3z"
                                                                    }
                                                                ]
                                                            },
                                                            {
                                                                "prim": "PAIR"
                                                            },
                                                            {
                                                                "prim": "PAIR"
                                                            },
                                                            {
                                                                "prim": "DIP",
                                                                "args": [
                                                                    [
                                                                        {
                                                                            "prim": "PUSH",
                                                                            "args": [
                                                                                {
                                                                                    "prim": "address"
                                                                                },
                                                                                {
                                                                                    "string": "KT1U8kHUKJVcPkzjHLahLxmnXGnK1StAeNjK"
                                                                                }
                                                                            ]
                                                                        },
                                                                        {
                                                                            "prim": "CONTRACT",
                                                                            "args": [
                                                                                {
                                                                                    "prim": "pair",
                                                                                    "args": [
                                                                                        {
                                                                                            "prim": "pair",
                                                                                            "args": [
                                                                                                {
                                                                                                    "prim": "address"
                                                                                                },
                                                                                                {
                                                                                                    "prim": "address"
                                                                                                }
                                                                                            ]
                                                                                        },
                                                                                        {
                                                                                            "prim": "contract",
                                                                                            "args": [
                                                                                                {
                                                                                                    "prim": "nat"
                                                                                                }
                                                                                            ]
                                                                                        }
                                                                                    ]
                                                                                }
                                                                            ],
                                                                            "annots": [
                                                                                "%getAllowance"
                                                                            ]
                                                                        },
                                                                        {
                                                                            "prim": "IF_NONE",
                                                                            "args": [
                                                                                [
                                                                                    {
                                                                                        "prim": "PUSH",
                                                                                        "args": [
                                                                                            {
                                                                                                "prim": "string"
                                                                                            },
                                                                                            {
                                                                                                "string": "b"
                                                                                            }
                                                                                        ]
                                                                                    },
                                                                                    {
                                                                                        "prim": "FAILWITH"
                                                                                    }
                                                                                ],
                                                                                []
                                                                            ]
                                                                        },
                                                                        {
                                                                            "prim": "PUSH",
                                                                            "args": [
                                                                                {
                                                                                    "prim": "mutez"
                                                                                },
                                                                                {
                                                                                    "int": "0"
                                                                                }
                                                                            ]
                                                                        }
                                                                    ]
                                                                ]
                                                            },
                                                            {
                                                                "prim": "TRANSFER_TOKENS"
                                                            },
                                                            {
                                                                "prim": "DIP",
                                                                "args": [
                                                                    [
                                                                        {
                                                                            "prim": "NIL",
                                                                            "args": [
                                                                                {
                                                                                    "prim": "operation"
                                                                                }
                                                                            ]
                                                                        }
                                                                    ]
                                                                ]
                                                            },
                                                            {
                                                                "prim": "CONS"
                                                            },
                                                            {
                                                                "prim": "DIP",
                                                                "args": [
                                                                    [
                                                                        {
                                                                            "prim": "UNIT"
                                                                        }
                                                                    ]
                                                                ]
                                                            },
                                                            {
                                                                "prim": "PAIR"
                                                            }
                                                        ]
                                                    ]
                                                }
                                            ]
                                        ]
                                    },
                                    {
                                        "prim": "APPLY"
                                    },
                                    {
                                        "prim": "DIP",
                                        "args": [
                                            [
                                                {
                                                    "prim": "PUSH",
                                                    "args": [
                                                        {
                                                            "prim": "address"
                                                        },
                                                        {
                                                            "string": "KT1Njyz94x2pNJGh5uMhKj24VB9JsGCdkySN"
                                                        }
                                                    ]
                                                },
                                                {
                                                    "prim": "CONTRACT",
                                                    "args": [
                                                        {
                                                            "prim": "lambda",
                                                            "args": [
                                                                {
                                                                    "prim": "unit"
                                                                },
                                                                {
                                                                    "prim": "pair",
                                                                    "args": [
                                                                        {
                                                                            "prim": "list",
                                                                            "args": [
                                                                                {
                                                                                    "prim": "operation"
                                                                                }
                                                                            ]
                                                                        },
                                                                        {
                                                                            "prim": "unit"
                                                                        }
                                                                    ]
                                                                }
                                                            ]
                                                        }
                                                    ]
                                                },
                                                {
                                                    "prim": "IF_NONE",
                                                    "args": [
                                                        [
                                                            {
                                                                "prim": "PUSH",
                                                                "args": [
                                                                    {
                                                                        "prim": "string"
                                                                    },
                                                                    {
                                                                        "string": "c"
                                                                    }
                                                                ]
                                                            },
                                                            {
                                                                "prim": "FAILWITH"
                                                            }
                                                        ],
                                                        []
                                                    ]
                                                },
                                                {
                                                    "prim": "PUSH",
                                                    "args": [
                                                        {
                                                            "prim": "mutez"
                                                        },
                                                        {
                                                            "int": "0"
                                                        }
                                                    ]
                                                }
                                            ]
                                        ]
                                    },
                                    {
                                        "prim": "TRANSFER_TOKENS"
                                    },
                                    {
                                        "prim": "DIP",
                                        "args": [
                                            [
                                                {
                                                    "prim": "NIL",
                                                    "args": [
                                                        {
                                                            "prim": "operation"
                                                        }
                                                    ]
                                                }
                                            ]
                                        ]
                                    },
                                    {
                                        "prim": "CONS"
                                    }
                                ]
                            ]
                        },
                        {
                            "prim": "CONS"
                        },
                        {
                            "prim": "DIP",
                            "args": [
                                [
                                    {
                                        "prim": "UNIT"
                                    }
                                ]
                            ]
                        },
                        {
                            "prim": "PAIR"
                        }
                    ]
                }
            }
        ],
        "signature": "edsigtXomBKi5CTRf5cjATJWSyaRvhfYNHqSUGrn4SdbYRcGwQrUGjzEfQDTuqHhuA8b2d8NarZjz8TRf65WkpQmo423BtomS8Q"
    },
    "chain_id": "NetXjD3HPJJjmcd"
}
