// Jest Snapshot v1, https://goo.gl/fbAQLP

exports[`Snapshots Render 1`] = `
<div>
  <div
    class="css-37jxxz"
  >
    <div
      class="css-1elhc16"
    >
      <div
        class="css-62oo96"
      >
        <span
          class="text css-f5kaye"
        >
          No wallet connected
        </span>
        <div
          class="css-cp06rt"
        >
          <span
            class="text css-16p1gat"
          >
            Please connect your wallet using the available options.
          </span>
        </div>
      </div>
      <div
        class="css-13jsur5"
      />
      <button
        class="css-gs6a5o"
        type="button"
      >
        Connect Wallet
      </button>
      <div
        class="css-13jsur5"
      />
      <button
        class="css-1hykmdl"
        type="button"
      >
        <span
          class="text css-19frzn5"
        >
          Connect via TezBridge
        </span>
      </button>
      <div
        class="css-17miseh"
      >
        <span
          class="text css-1n2q5h8"
        >
          Token balances
        </span>
        <div
          class="css-p5da97"
        >
          <div
            class="css-1qtymkp"
          >
            <div
              class="css-81ooqx"
            >
              <span
                class="text css-11hapxs"
              >
                4,120.872131
              </span>
              <span
                class="text css-11hapxs"
              >
                XTZ
              </span>
            </div>
          </div>
          <div
            class="css-1qtymkp"
          >
            <div
              class="css-81ooqx"
            >
              <span
                class="text css-11hapxs"
              >
                0.918210
              </span>
              <span
                class="text css-11hapxs"
              >
                tzBTC
              </span>
            </div>
          </div>
          <div
            class="css-1qtymkp"
          >
            <div
              class="css-1frns1y"
            >
              <span
                class="text css-11hapxs"
              >
                240
              </span>
              <span
                class="text css-11hapxs"
              >
                USDtz
              </span>
            </div>
          </div>
        </div>
      </div>
    </div>
  </div>
</div>
`;
