// Jest Snapshot v1, https://goo.gl/fbAQLP

exports[`Snapshots mtzExchangeBalance 1`] = `
<div>
  <div
    class="css-poc3le"
  >
    <div
      class="css-153w1v6"
    >
      <span
        class="text css-a1sm0x"
      >
        0.01523806 MTZ = 1 XTZ
      </span>
    </div>
  </div>
</div>
`;

exports[`Snapshots tzgExchangeBalance 1`] = `
<div>
  <div
    class="css-poc3le"
  >
    <div
      class="css-153w1v6"
    >
      <span
        class="text css-a1sm0x"
      >
        10000.00000000 TZG = 1 XTZ
      </span>
    </div>
  </div>
</div>
`;

exports[`Snapshots tztExchangeBalance 1`] = `
<div>
  <div
    class="css-poc3le"
  >
    <div
      class="css-153w1v6"
    >
      <span
        class="text css-a1sm0x"
      >
        98.91089109 TZT = 1 XTZ
      </span>
    </div>
  </div>
</div>
`;
