// Jest Snapshot v1, https://goo.gl/fbAQLP

exports[`Snapshots mtzBalance 1`] = `
<div>
  <div
    class="css-poc3le"
  >
    <div
      class="css-153w1v6"
    >
      <span
        class="text css-a1sm0x"
      >
        1 XTZ = 0.01400000 MTZ
      </span>
    </div>
  </div>
</div>
`;

exports[`Snapshots tzgBalance 1`] = `
<div>
  <div
    class="css-poc3le"
  >
    <div
      class="css-153w1v6"
    >
      <span
        class="text css-a1sm0x"
      >
        1 XTZ = 9920.00000000 TZG
      </span>
    </div>
  </div>
</div>
`;

exports[`Snapshots tztBalance 1`] = `
<div>
  <div
    class="css-poc3le"
  >
    <div
      class="css-153w1v6"
    >
      <span
        class="text css-a1sm0x"
      >
        1 XTZ = 98.56000000 TZT
      </span>
    </div>
  </div>
</div>
`;
