// Jest Snapshot v1, https://goo.gl/fbAQLP

exports[`Snapshots MTZ 1`] = `
<div>
  <button
    class="css-436sz8"
    type="button"
  >
    <div
      class="css-10koc32"
    >
      <div
        class="css-s3g0d2"
      >
        <img
          src="/icons/add.svg"
        />
      </div>
    </div>
  </button>
  <button
    class="css-436sz8"
    type="button"
  >
    <div
      class="css-10koc32"
    >
      <div
        class="css-s3g0d2"
      >
        <img
          src="/icons/remove.svg"
        />
      </div>
    </div>
  </button>
  <button
    class="css-436sz8"
    type="button"
  >
    <div
      class="css-10koc32"
    >
      <div
        class="css-s3g0d2"
      >
        <img
          src="/icons/exchange.svg"
        />
      </div>
    </div>
  </button>
</div>
`;

exports[`Snapshots MTZ; No XTZ 1`] = `
<div>
  <div
    class="css-1reywn4"
  >
    <div
      class="css-1jy6vcj"
    >
      <div
        class="css-s3g0d2"
      >
        <img
          src="/icons/add.svg"
        />
      </div>
    </div>
  </div>
  <button
    class="css-436sz8"
    type="button"
  >
    <div
      class="css-10koc32"
    >
      <div
        class="css-s3g0d2"
      >
        <img
          src="/icons/remove.svg"
        />
      </div>
    </div>
  </button>
  <button
    class="css-436sz8"
    type="button"
  >
    <div
      class="css-10koc32"
    >
      <div
        class="css-s3g0d2"
      >
        <img
          src="/icons/exchange.svg"
        />
      </div>
    </div>
  </button>
</div>
`;

exports[`Snapshots TZG 1`] = `
<div>
  <button
    class="css-436sz8"
    type="button"
  >
    <div
      class="css-10koc32"
    >
      <div
        class="css-s3g0d2"
      >
        <img
          src="/icons/add.svg"
        />
      </div>
    </div>
  </button>
  <button
    class="css-436sz8"
    type="button"
  >
    <div
      class="css-10koc32"
    >
      <div
        class="css-s3g0d2"
      >
        <img
          src="/icons/remove.svg"
        />
      </div>
    </div>
  </button>
  <button
    class="css-436sz8"
    type="button"
  >
    <div
      class="css-10koc32"
    >
      <div
        class="css-s3g0d2"
      >
        <img
          src="/icons/exchange.svg"
        />
      </div>
    </div>
  </button>
</div>
`;
