// Jest Snapshot v1, https://goo.gl/fbAQLP

exports[`Snapshots Render 1`] = `
<div>
  <div
    class="css-17miseh"
  >
    <span
      class="text css-1n2q5h8"
    >
      Token balances
    </span>
    <div
      class="css-p5da97"
    >
      <div
        class="css-1qtymkp"
      >
        <div
          class="css-81ooqx"
        >
          <span
            class="text css-11hapxs"
          >
            4,120.872131
          </span>
          <span
            class="text css-11hapxs"
          >
            XTZ
          </span>
        </div>
      </div>
      <div
        class="css-1qtymkp"
      >
        <div
          class="css-81ooqx"
        >
          <span
            class="text css-11hapxs"
          >
            0.918210
          </span>
          <span
            class="text css-11hapxs"
          >
            tzBTC
          </span>
        </div>
      </div>
      <div
        class="css-1qtymkp"
      >
        <div
          class="css-1frns1y"
        >
          <span
            class="text css-11hapxs"
          >
            240
          </span>
          <span
            class="text css-11hapxs"
          >
            USDtz
          </span>
        </div>
      </div>
    </div>
  </div>
</div>
`;
