// Jest Snapshot v1, https://goo.gl/fbAQLP

exports[`Snapshots Renders 1`] = `
<div>
  <div
    class="css-1k000l1"
  />
  <span
    class="text css-16p1gat"
  >
    Pricing data is currently unavailable.
  </span>
  <span
    class="text css-16p1gat"
  >
    Please check back again soon.
  </span>
  <div
    class="css-2r71x7"
  />
</div>
`;
