// Jest Snapshot v1, https://goo.gl/fbAQLP

exports[`Snapshots Error; Dark mode 1`] = `
<div>
  <div
    class="css-195olst"
  >
    <span
      class="text css-br2kpt"
    >
      Snapshot
    </span>
  </div>
</div>
`;

exports[`Snapshots Error; Light mode 1`] = `
<div>
  <div
    class="css-w332vb"
  >
    <span
      class="text css-1orvs7"
    >
      Snapshot
    </span>
  </div>
</div>
`;

exports[`Snapshots Info; Dark mode 1`] = `
<div>
  <div
    class="css-yi29j1"
  >
    <span
      class="text css-br2kpt"
    >
      Snapshot
    </span>
  </div>
</div>
`;

exports[`Snapshots Info; Light mode 1`] = `
<div>
  <div
    class="css-1p9piwg"
  >
    <span
      class="text css-1xc8t4j"
    >
      Snapshot
    </span>
  </div>
</div>
`;

exports[`Snapshots Warning; Dark mode 1`] = `
<div>
  <div
    class="css-1xrxndf"
  >
    <span
      class="text css-br2kpt"
    >
      Snapshot
    </span>
  </div>
</div>
`;

exports[`Snapshots Warning; Light mode 1`] = `
<div>
  <div
    class="css-1fd39yv"
  >
    <span
      class="text css-16e3qui"
    >
      Snapshot
    </span>
  </div>
</div>
`;
