// Jest Snapshot v1, https://goo.gl/fbAQLP

exports[`Snapshots Dark mode; No onClick 1`] = `
<div>
  <div
    class="css-3qohtv"
  >
    <div
      class="css-1b6br"
    />
    <div
      class="css-1fzt3td"
    >
      <div
        class="css-1qyp71p"
      >
        <div
          class="css-r2nm85"
        >
          <img
            src="/icons/receive-d.svg"
          />
        </div>
      </div>
    </div>
  </div>
</div>
`;

exports[`Snapshots Dark mode; With onClick 1`] = `
<div>
  <div
    class="css-1j1k0xa"
  >
    <div
      class="css-1b6br"
    />
    <div
      class="css-1hgy17f"
    >
      <button
        class="css-dfjru2"
        type="button"
      >
        <div
          class="css-7zsada"
        >
          <img
            src="/icons/exchange-middle-d.svg"
          />
        </div>
      </button>
    </div>
  </div>
</div>
`;

exports[`Snapshots Light mode; No onClick 1`] = `
<div>
  <div
    class="css-3qohtv"
  >
    <div
      class="css-106wamf"
    />
    <div
      class="css-dojxaf"
    >
      <div
        class="css-1qyp71p"
      >
        <div
          class="css-r2nm85"
        >
          <img
            src="/icons/receive.svg"
          />
        </div>
      </div>
    </div>
  </div>
</div>
`;

exports[`Snapshots Light mode; With onClick 1`] = `
<div>
  <div
    class="css-1j1k0xa"
  >
    <div
      class="css-106wamf"
    />
    <div
      class="css-gqpdvn"
    >
      <button
        class="css-dfjru2"
        type="button"
      >
        <div
          class="css-7zsada"
        >
          <img
            src="/icons/exchange-middle.svg"
          />
        </div>
      </button>
    </div>
  </div>
</div>
`;
